A guide on PreFer codebooks [LISS]
…
This variable contained an answer to the question “I receive far too many requests to participate in surveys.”. It came from the 2012 Personality core survey. This is a categorical variable and has 7 possible values (from 1 to 7, see values_cat) which reflects a Likert scale because it has value labels (1 totally disagree; 2; 3; 4; 5; 6; 7 totally agree; see labels_cat). In the data, 7 unique values were actually observed (see unique_values_n), which does not need to be the case. In this 2012 wave of this Personality core survey, there was only 1 missing value (n_missing), which meant 0.0001679825 was missing (and that 1/0.0001679825 = 5953 participated in the survey). There is no note meaning no problems were observed for this particular variable.

Example 2

Let’s examine whether any variable labels (or question labels) say anything about income.

codebook[ grepl("income", codebook$var_label), ] # 1192 variables!

# A tibble: 1,192 × 12
   var_name var_label            values_cat labels_cat unique_values_n n_missing
   <chr>    <chr>                <chr>      <chr>                <dbl>     <dbl>
 1 ci08a008 Did you receive inc… 1; 2       yes; no                  2        50
 2 ci09b008 Did you receive inc… 1; 2       yes; no                  2        27
 3 ci10c008 Did you receive inc… 1; 2       yes; no                  2        62
 4 ci11d008 Did you receive inc… 1; 2       yes; no                  2        87
 5 ci12e008 Did you receive inc… 1; 2       yes; no                  2        40
 6 ci13f008 Did you receive inc… 1; 2       yes; no                  2        81
 7 ci14g008 Did you receive inc… 1; 2       yes; no                  2        41
 8 ci15h008 Did you receive inc… 1; 2       yes; no                  2        68
 9 ci16i008 Did you receive inc… 1; 2       yes; no                  2        32
10 ci17j008 Did you receive inc… 1; 2       yes; no                  2        32
# ℹ 1,182 more rows
# ℹ 6 more variables: prop_missing <dbl>, type_var <chr>, note <chr>,
#   year <dbl>, survey <chr>, dataset <chr>
…
